{
    "name": "Beneficio",
    "fields": [
        {
            "fieldName": "descripcion",
            "fieldType": "String",
            "fieldValidateRules": [
                "required"
            ]
        }
    ],
    "relationships": [
        {
            "relationshipType": "one-to-many",
            "otherEntityName": "membresia",
            "otherEntityRelationshipName": "beneficio",
            "relationshipName": "idMembresia"
        }
    ],
    "changelogDate": "20190409221333",
    "entityTableName": "beneficio",
    "dto": "no",
    "pagination": "no",
    "service": "serviceImpl",
    "jpaMetamodelFiltering": false,
    "fluentMethods": true,
    "clientRootFolder": "",
    "applications": "*"
}